<?xml version="1.0" encoding="UTF-8" standalone="no"?>
<!-- Created with Inkscape (http://www.inkscape.org/) -->

<svg
   width="562.36609"
   height="562.36609"
   viewBox="0 0 561.48165 561.48165"
   version="1.1"
   id="svg259"
   xmlns="http://www.w3.org/2000/svg"
   xmlns:svg="http://www.w3.org/2000/svg">
  <defs
     id="defs256">
    <rect
       x="242.32941"
       y="465.22061"
       width="259.17584"
       height="133.47556"
       id="rect56172" />
    <clipPath
       clipPathUnits="userSpaceOnUse"
       id="clipPath59424">
      <path
         id="path59426"
         style="display:inline;opacity:1;fill:#b24747;fill-opacity:1;fill-rule:evenodd;stroke:#ffffff;stroke-width:0.534001;stroke-linecap:butt;stroke-linejoin:miter;stroke-dasharray:none;stroke-opacity:1;paint-order:markers stroke fill"
         d="M 16.767452,56.572256 V 240.4277 H 195.52347 V 56.572256 Z m 88.223038,23.383586 c 0.44175,-1.48e-4 0.8828,0.0042 1.32343,0.01291 25.38053,0.503462 48.82282,15.708704 59.21603,39.787748 4.61917,10.70182 6.19413,22.07552 5.02295,33.0631 -1.88864,17.71844 -10.92031,34.43105 -25.8501,45.68714 l 2.56883,3.65869 -16.71009,1.48259 7.07089,-15.21199 2.47013,3.51865 c 21.121,-16.07424 28.66712,-44.50708 18.08262,-69.02937 C 147.34479,97.810227 120.47662,83.720826 93.652681,89.083451 66.828728,94.446082 47.443316,117.78278 47.092216,145.13533 c -0.351099,27.35248 18.427788,51.17913 45.105257,57.22855 l -1.768885,7.80314 C 60.115106,203.2931 38.693241,176.11404 39.092187,145.03352 39.491139,113.95307 61.604374,87.331981 92.084303,81.238452 c 4.316002,-0.862851 8.635917,-1.281157 12.906187,-1.28261 z m 5.8415,19.717661 a 8.8174872,8.8174872 0 0 1 0.65888,0.02532 8.8174872,8.8174872 0 0 1 7.54217,5.581057 8.8174872,8.8174872 0 0 1 -4.12326,11.02103 v 83.64451 a 8.8174872,8.8174872 0 0 1 4.12326,4.59248 8.8174872,8.8174872 0 0 1 -5.00124,11.42308 8.8174872,8.8174872 0 0 1 -11.42308,-5.00073 8.8174872,8.8174872 0 0 1 4.06591,-10.97814 V 165.14496 L 82.954109,150.31589 a 8.8174872,8.8174872 0 0 1 -1.195793,0.57516 8.8174872,8.8174872 0 0 1 -11.423073,-5.00073 8.8174872,8.8174872 0 0 1 5.000726,-11.42308 8.8174872,8.8174872 0 0 1 3.222543,-0.60513 8.8174872,8.8174872 0 0 1 0.658876,0.0253 8.8174872,8.8174872 0 0 1 7.541657,5.58106 8.8174872,8.8174872 0 0 1 0.579294,3.87625 l 19.336291,12.08815 v -39.16402 a 8.8174872,8.8174872 0 0 1 -4.06591,-4.56716 8.8174872,8.8174872 0 0 1 5.00125,-11.42256 8.8174872,8.8174872 0 0 1 2.56315,-0.581877 8.8174872,8.8174872 0 0 1 0.65887,-0.02376 z" />
    </clipPath>
  </defs>
  <g
     id="layer1"
     transform="translate(14.786266,12.354594)">
    <circle
       style="display:inline;fill:#000000;fill-opacity:1;fill-rule:evenodd;stroke:#000000;stroke-width:14.8803;stroke-linecap:butt;stroke-linejoin:miter;stroke-dasharray:none;stroke-opacity:1;paint-order:markers stroke fill"
       id="path18238"
       cx="105"
       cy="148.5"
       r="77.18885"
       clip-path="url(#clipPath59424)"
       transform="matrix(3.3173125,0,0,3.3173125,-82.363238,-224.23466)" />
  </g>
</svg>
